Introduction to agrometR • agrometR
…
      Source: vignettes/Introduction-to-agrometR.Rmd
      Introduction-to-agrometR.Rmd

library(agrometR)

Datos de estaciones

data("estaciones_agromet", package = "agrometR")

estaciones_agromet
#> # A tibble: 417 × 8
#>      ema institucion nombre_ema      comuna          region     latitud longitud
#>    <dbl> <chr>       <chr>           <chr>           <chr>        <dbl>    <dbl>
#>  1     1 FDF         Azapa1          Arica           Arica y P…   -18.5    -70.2
#>  2     2 FDF         Azapa2          Arica           Arica y P…   -18.5    -70.2
#>  3     3 FDF         Tranque Lautaro Tierra Amarilla Atacama      -28.0    -70  
#>  4     4 FDF         Jotabeche       Tierra Amarilla Atacama      -27.6    -70.2
#>  5     5 FDF         Hornitos        Tierra Amarilla Atacama      -27.7    -70.2
#>  6     6 FDF         Copiapo         Copiapó         Atacama      -27.3    -70.4
#>  7     7 FDF         Bodega          Copiapó         Atacama      -27.3    -70.4
#>  8     8 FDF         Vallenar        Freirina        Atacama      -28.5    -70.9
#>  9     9 FDF         Alto del Carmen Alto del Carmen Atacama      -28.8    -70.4
#> 10    10 FDF         El Palqui       Monte Patria    Coquimbo     -30.7    -70.9
#> # … with 407 more rows, and 1 more variable: fecha_de_alta <dttm>
…
